24 3
       0        1        1
 0.04375        1        1
  0.0875 0.996876 0.996884
 0.13125 0.990661 0.990702
   0.175 0.981436 0.981549
 0.21875  0.96933 0.969569
  0.2625 0.954516 0.954949
 0.30625  0.93721 0.937911
    0.35 0.917662 0.918715
 0.39375 0.896156 0.897646
  0.4375 0.872997 0.875012
 0.48125  0.84851 0.851132
   0.525 0.823029 0.826332
 0.56875 0.796888 0.800937
  0.6125 0.770417  0.77526
 0.65625 0.743929   0.7496
     0.7  0.71772 0.724233
 0.74375 0.692056 0.699407
  0.7875 0.667174  0.67534
 0.83125 0.643278 0.652216
   0.875 0.620533 0.630186
 0.91875 0.599071 0.609365
  0.9625 0.578986 0.589836
 1.00625 0.560341 0.571652